…
Generating V-measure plot for 6 classes...
  Saved: ../results_minimal_features/vmeasure_6class_legacy.png

Generating V-measure plot for 9 classes...
  Saved: ../results_minimal_features/vmeasure_9class_legacy.png

Generating combined V-measure plot...
  Saved: ../results_minimal_features/vmeasure_combined_legacy.png

================================================================================ 
V-MEASURE SUMMARY BY METHOD
================================================================================ 

# A tibble: 24 × 5
   method_label         num_classes v_mean   v_sd     n
   <chr>                      <dbl>  <dbl>  <dbl> <int>
 1 LoClust Hierarchical           3  0.981 0.0541  1200
 2 LoClust Kmeans                 3  0.981 0.0475  1200
 3 LoClust Gmm                    3  0.967 0.0911  1200
 4 MFUZZ                          3  0.923 0.119   1200
 5 TRAJ                           3  0.921 0.124   1200
 6 KML                            3  0.596 0.267   1200
 7 DTWCLUST                       3  0.581 0.193   1000
 8 LoClust Spectral               3  0.261 0.426   1199
 9 LoClust Gmm                    6  0.949 0.0584   480
10 LoClust Hierarchical           6  0.932 0.0598   480
# ℹ 14 more rows
…
Generating V-measure plot for 6 classes...
  Saved: ../results_minimal_features/vmeasure_6class_legacy.png

Generating V-measure plot for 9 classes...
  Saved: ../results_minimal_features/vmeasure_9class_legacy.png

Generating combined V-measure plot...
  Saved: ../results_minimal_features/vmeasure_combined_legacy.png

================================================================================ 
V-MEASURE SUMMARY BY METHOD
================================================================================ 

# A tibble: 24 × 5
   method_label         num_classes v_mean   v_sd     n
   <chr>                      <dbl>  <dbl>  <dbl> <int>
 1 LoClust Hierarchical           3  0.981 0.0541  1200
 2 LoClust Kmeans                 3  0.981 0.0475  1200
 3 LoClust Gmm                    3  0.967 0.0911  1200
 4 MFUZZ                          3  0.923 0.119   1200
 5 KML                            3  0.596 0.267   1200
 6 DTWCLUST                       3  0.581 0.193   1000
 7 TRAJ                           3  0.516 0.429   1200
 8 LoClust Spectral               3  0.261 0.426   1199
 9 LoClust Gmm                    6  0.949 0.0584   480
10 LoClust Hierarchical           6  0.932 0.0598   480
# ℹ 14 more rows
…
